{ 
    "default": [
        [
            "(", ")", "_", 
            "&", "?", "'", 
            "#", "=", "\"", 
            "!"
        ],
        [
            ";", "/", ":",
            "+", ",", "-",
            "$", "@", "%",
            "."
        ],
        [
            "1", "2", "3",
            "4", "5", "6",
            "7", "8", "9",
            "0"
        ],
        [
            "q", "w", "e",
            "a", "s", "d",
            "z", "x", "c",
            ""
        ],
        [
            {"img": "sym", "action": "ToggleSymbol()"}, {"img": "autocomplete", "action": "AutocompleteLayout()"}, {"img": "shift", "action": "toggleShift()"},
            {"img": "backspace", "action": "backspace()"}, "", {"img": "space", "action": "write(' ')"},
            {"img": "enter", "action": "newLine()"}, "", {"img": "caps", "action": "toggleCaps()"},
            ""
        ],
        [
            "i", "o", "p",
            "j", "k", "l",
            "b", "n", "m",
            ""
        ],
        [
            "", "r", "y",
            "", "", "",
            "", "", "",
            ""
        ],
        [
            "t", "u", "i",
            "f", "g", "h",
            "", "v", "",
            ""
        ],
        [
            "æ", "ø", "å",
            "", "", "",
            "", "", "",
            ""
        ]
    ],
    "uppercase": [
        [
            "(", ")", "_", 
            "&", "?", "'", 
            "#", "=", "\"", 
            "!"
        ],
        [
            ";", "/", ":",
            "+", ",", "-",
            "$", "@", "%",
            "."
        ],
        [
            "1", "2", "3",
            "4", "5", "6",
            "7", "8", "9",
            "0"
        ],
        [
            "Q", "W", "E",
            "A", "S", "D",
            "Z", "X", "C",
            ""
        ],
        [
            {"img": "sym", "action": "ToggleSymbol()"}, {"img": "autocomplete", "action": "AutocompleteLayout()"}, {"img": "shift", "action": "toggleShift()"},
            {"img": "backspace", "action": "backspace()"}, "", {"img": "space", "action": "write(' ')"},
            {"img": "enter", "action": "newLine()"}, "", {"img": "caps", "action": "toggleCaps()"},
            ""
        ],
        [
            "I", "O", "P",
            "J", "K", "L",
            "B", "N", "M",
            ""
        ],
        [
            "", "R", "Y",
            "", "", "",
            "", "", "",
            ""
        ],
        [
            "T", "U", "I",
            "F", "G", "H",
            "", "V", "",
            ""
        ],
        [
            "Æ", "Ø", "Å",
            "", "", "",
            "", "", "",
            ""
        ]
    ],
    "symbols": [
        [
            "{", "}", "“", 
            "[", "]", "„", 
            "<", ">", "»", 
            "«"
        ],
        [
            "*", "^", "|",
            "", "®", "",
            "~", "´", "`",
            "©"
        ],
        [
            "≈", "≠", "≡",
            "÷", "×", "",
            "", "", "",
            ""
        ],
        [
            "£", "", "¥",
            "₪", "€", "",
            "", "", "",
            "¢"
        ],
        [
            {"img": "abc", "action": "ToggleSymbol()"}, "", "",
            {"img": "backspace", "action": "backspace()"}, "", {"img": "space", "action": "write(' ')"},
            {"img": "enter", "action": "newLine()"}, "", "",
            ""
        ],
        [
            "", "", "",
            "", "", "",
            "", "", "",
            ""
        ],
        [
            "", "", "",
            "", "", "",
            "", "", "",
            ""
        ],
        [
            "", "", "",
            "", "", "",
            "", "", "",
            ""
        ],
        [
            "", "", "",
            "", "", "",
            "", "", "",
            ""
        ]
    ] 
}